-------------------------------------------------------------------------------
Test set: ru.roman.services.impl.XmlOutputServiceSpec
-------------------------------------------------------------------------------
Tests run: 4, Failures: 0, Errors: 0, Skipped: 0, Time elapsed: 0.008 sec - in ru.roman.services.impl.XmlOutputServiceSpec
